## Interface: 90105
## Title: PetWalker
## Notes: Automatically re-summons your lost companion pet, or auto-summons a random or a favorite one.
## Author: Tom
## SavedVariables: PetWalkerDB
## SavedVariablesPerCharacter: PetWalkerPerCharDB
## Version: 0.0.5

# X-WoWI-ID: 
# X-Curse-Project-ID: 

main.lua
ui.lua


# ISC License
# 
# Copyright © 2022 Thomas Floeren
# 
# Permission to use, copy, modify, and/or distribute this software for any
# purpose with or without fee is hereby granted, provided that the above
# copyright notice and this permission notice appear in all copies.
# 
# THE SOFTWARE IS PROVIDED "AS IS" AND THE AUTHOR DISCLAIMS ALL WARRANTIES WITH
# REGARD TO THIS SOFTWARE INCLUDING ALL IMPLIED WARRANTIES OF MERCHANTABILITY
# AND FITNESS. IN NO EVENT SHALL THE AUTHOR BE LIABLE FOR ANY SPECIAL, DIRECT,
# INDIRECT, OR CONSEQUENTIAL DAMAGES OR ANY DAMAGES WHATSOEVER RESULTING FROM
# LOSS OF USE, DATA OR PROFITS, WHETHER IN AN ACTION OF CONTRACT, NEGLIGENCE OR
# OTHER TORTIOUS ACTION, ARISING OUT OF OR IN CONNECTION WITH THE USE OR
# PERFORMANCE OF THIS SOFTWARE.

